/* XPM */
static char * wmint_master_xpm[] = {
"160 100 12 1",
" 	c #00000000FFFF",
".	c #208120812081",
"X	c #000000000000",
"o	c #C71BC30BC71B",
"O	c #2081B2CAAEBA",
"+	c #000049244103",
"@	c #00007DF771C6",
"#	c #B6DA04101861",
"$	c #0000EBAD0000",
"%	c #28A23CF338E3",
"&	c #F7DEF3CEFFFF",
"*	c #71C6E38D71C6",
"                                                                .                                                                                               ",
"                                                                .                                                                                               ",
"                                                                .                                                                                               ",
"                                                                .                                                                                               ",
"    XXXXXXXXXXXXXXXXXXXXXXXXXXXXXXXXXXXXXXXXXXXXXXXXXXXXXXXX    .                                                                                               ",
"    XXXXXXXXXXXXXXXXXXXXXXXXXXXXXXXXXXXXXXXXXXXXXXXXXXXXXXXo    .                                                                                               ",
"    XXXXXXXXXXXXXXXXXXXXXXXXXXXXXXXXXXXXXXXXXXXXXXXXXXXXXXXo    .                                                                                               ",
"    XXXXXXXXXXXXXXXXXXXXXXXXXXXXXXXXXXXXXXXXXXXXXXXXXXXXXXXo    .                                                                                               ",
"    XXXXXXXXXXXXXXXXXXXXXXXXXXXXXXXXXXXXXXXXXXXXXXXXXXXXXXXo    .                                                                                               ",
"    XXXXXXXXXXXXXXXXXXXXXXXXXXXXXXXXXXXXXXXXXXXXXXXXXXXXXXXo    .                                                                                               ",
"    XXXXXXXXXXXXXXXXXXXXXXXXXXXXXXXXXXXXXXXXXXXXXXXXXXXXXXXo    .                                                                                               ",
"    XXXXXXXXXXXXXXXXXXXXXXXXXXXXXXXXXXXXXXXXXXXXXXXXXXXXXXXo    .                                                                                               ",
"    XXXXXXXXXXXXXXXXXXXXXXXXXXXXXXXXXXXXXXXXXXXXXXXXXXXXXXXo    .                                                                                               ",
"    XXXXXXXXXXXXXXXXXXXXXXXXXXXXXXXXXXXXXXXXXXXXXXXXXXXXXXXo    .                                                                                               ",
"    XXXXXXXXXXXXXXXXXXXXXXXXXXXXXXXXXXXXXXXXXXXXXXXXXXXXXXXo    .                                                                                               ",
"    XXXXXXXXXXXXXXXXXXXXXXXXXXXXXXXXXXXXXXXXXXXXXXXXXXXXXXXo    .                                                                                               ",
"    XXXXXXXXXXXXXXXXXXXXXXXXXXXXXXXXXXXXXXXXXXXXXXXXXXXXXXXo    .                                                                                               ",
"    oooooooooooooooooooooooooooooooooooooooooooooooooooooooo    .                                                                                               ",
"                                                           o    .                                                                                               ",
"                                                           o    .                                                                                               ",
"    XXXXXXXXXXXXXXXXXXXXXXXXXXXXXXXXXXXXXXXo  XXXXXXXXXXXXXX    .                                                                                               ",
"    XXXXXXXXXXXXXXXXXXXXXXXXXXXXXXXXXXXXXXXo  XXXXXXXXXXXXXo    .                                                                                               ",
"    XXXXXXXXXXXXXXXXXXXXXXXXXXXXXXXXXXXXXXXo  XXXXXXXXXXXXXo    .                                                                                               ",
"    XXXXXXXXXXXXXXXXXXXXXXXXXXXXXXXXXXXXXXXo  XXXXXXXXXXXXXo    .                                                                                               ",
"    XXXXXXXXXXXXXXXXXXXXXXXXXXXXXXXXXXXXXXXo  XXXXXXXXXXXXXo    .                                                                                               ",
"    XXXXXXXXXXXXXXXXXXXXXXXXXXXXXXXXXXXXXXXo  XXXXXXXXXXXXXo    .                                                                                               ",
"    XXXXXXXXXXXXXXXXXXXXXXXXXXXXXXXXXXXXXXXo  XXXXXXXXXXXXXo    .                                                                                               ",
"    XXXXXXXXXXXXXXXXXXXXXXXXXXXXXXXXXXXXXXXo  XXXXXXXXXXXXXo    .                                                                                               ",
"    XXXXXXXXXXXXXXXXXXXXXXXXXXXXXXXXXXXXXXXo  XXXXXXXXXXXXXo    .                                                                                               ",
"    XXXXXXXXXXXXXXXXXXXXXXXXXXXXXXXXXXXXXXXo  XXXXXXXXXXXXXo    .                                                                                               ",
"    XXXXXXXXXXXXXXXXXXXXXXXXXXXXXXXXXXXXXXXo  XXXXXXXXXXXXXo    .                                                                                               ",
"    XXXXXXXXXXXXXXXXXXXXXXXXXXXXXXXXXXXXXXXo  oooooooooooooo    .                                                                                               ",
"    XXXXXXXXXXXXXXXXXXXXXXXXXXXXXXXXXXXXXXXo               o    .                                                                                               ",
"    XXXXXXXXXXXXXXXXXXXXXXXXXXXXXXXXXXXXXXXo               o    .                                                                                               ",
"    XXXXXXXXXXXXXXXXXXXXXXXXXXXXXXXXXXXXXXXXXXXXXXXXXXXXXXXX    .                                                                                               ",
"    XXXXXXXXXXXXXXXXXXXXXXXXXXXXXXXXXXXXXXXXXXXXXXXXXXXXXXXo    .                                                                                               ",
"    XXXXXXXXXXXXXXXXXXXXXXXXXXXXXXXXXXXXXXXXXXXXXXXXXXXXXXXo    .                                                                                               ",
"    XXXXXXXXXXXXXXXXXXXXXXXXXXXXXXXXXXXXXXXXXXXXXXXXXXXXXXXo    .                                                                                               ",
"    XXXXXXXXXXXXXXXXXXXXXXXXXXXXXXXXXXXXXXXXXXXXXXXXXXXXXXXo    .                                                                                               ",
"    XXXXXXXXXXXXXXXXXXXXXXXXXXXXXXXXXXXXXXXXXXXXXXXXXXXXXXXo    .                                                                                               ",
"    XXXXXXXXXXXXXXXXXXXXXXXXXXXXXXXXXXXXXXXXXXXXXXXXXXXXXXXo    .                                                                                               ",
"    XXXXXXXXXXXXXXXXXXXXXXXXXXXXXXXXXXXXXXXXXXXXXXXXXXXXXXXo    .                                                                                               ",
"    XXXXXXXXXXXXXXXXXXXXXXXXXXXXXXXXXXXXXXXXXXXXXXXXXXXXXXXo    .                                                                                               ",
"    XXXXXXXXXXXXXXXXXXXXXXXXXXXXXXXXXXXXXXXXXXXXXXXXXXXXXXXo    .                                                                                               ",
"    XXXXXXXXXXXXXXXXXXXXXXXXXXXXXXXXXXXXXXXXXXXXXXXXXXXXXXXo    .                                                                                               ",
"    oooooooooooooooooooooooooooooooooooooooooooooooooooooooo    .                                                                                               ",
"                                                           o    .                                                                                               ",
"                                                           o    .                                                                                               ",
"    XXXXXXXXXXXXXXXXXXXXXXXXXXXXXXXXXXXXXXXXXXXXXXXXXXXXXXXX    .                                                                                               ",
"    XXXXXXXXXXXXXXXXXXXXXXXXXXXXXXXXXXXXXXXXXXXXXXXXXXXXXXXo    .                                                                                               ",
"    XXXXXXXXXXXXXXXXXXXXXXXXXXXXXXXXXXXXXXXXXXXXXXXXXXXXXXXo    .                                                                                               ",
"    XXXXXXXXXXXXXXXXXXXXXXXXXXXXXXXXXXXXXXXXXXXXXXXXXXXXXXXo    .                                                                                               ",
"    XXXXXXXXXXXXXXXXXXXXXXXXXXXXXXXXXXXXXXXXXXXXXXXXXXXXXXXo    .                                                                                               ",
"    XXXXXXXXXXXXXXXXXXXXXXXXXXXXXXXXXXXXXXXXXXXXXXXXXXXXXXXo    .                                                                                               ",
"    XXXXXXXXXXXXXXXXXXXXXXXXXXXXXXXXXXXXXXXXXXXXXXXXXXXXXXXo    .                                                                                               ",
"    XXXXXXXXXXXXXXXXXXXXXXXXXXXXXXXXXXXXXXXXXXXXXXXXXXXXXXXo    .                                                                                               ",
"    XXXXXXXXXXXXXXXXXXXXXXXXXXXXXXXXXXXXXXXXXXXXXXXXXXXXXXXo    .                                                                                               ",
"    XXXXXXXXXXXXXXXXXXXXXXXXXXXXXXXXXXXXXXXXXXXXXXXXXXXXXXXo    .                                                                                               ",
"    XXXXXXXXXXXXXXXXXXXXXXXXXXXXXXXXXXXXXXXXXXXXXXXXXXXXXXXo    .                                                                                               ",
"    oooooooooooooooooooooooooooooooooooooooooooooooooooooooo    .                                                                                               ",
"                                                                .                                                                                               ",
"                                                                .                                                                                               ",
"                                                                .                                                                                               ",
"                                                                .                                                                                               ",
"...............................................................................                                                                                 ",
"..OOO...+++@.@OOO@.@OOO@.@+++@.@OOO@.@OOO@.@OOO@.@OOO@.@OOO@...................                                                                                 ",
".O...O.+...O.+...O.+...O.O...O.O...+.O...+.+...O.O...O.O...O............O......  .##.  .$$.  .%%.                                                               ",
".O...O.+...O.+...O.+...O.O...O.O...+.O...+.+...O.O...O.O...O..O....O....O......  #&##  $&$$  %%%%                                                               ",
".@+++@..+++@.@OOO@..OOO@.@OOO@.@OOO@.@OOO@..+++@.+OOO+.@OOO@..@....@...O.......  ####  $$$$  %%%%   .O+*                                                        ",
".O...O.+...O.O...+.+...O.+...O.+...O.O...O.+...O.O...O.+...O...........O.......  .##.  .$$.  .%%.                                                               ",
".O...O.+...O.O...+.+...O.+...O.+...O.O...O.+...O.O...O.+...O..O....O..O........                                                                                 ",
"..OOO...+++O.@OOO@.@OOO@..+++@.@OOO@.@OOO@..+++@.@OOO@.@OOO@..@....@..O........                                                                                 ",
"...............................................................................                                                                                 ",
"                                                                                                                                                                ",
"................................................................................................................................................................",
".+OOO+.@OOO..@OOO@.@OOO..@OOO@.@OOO@.@OOO@.@+++@..+++@..+++@.@+++@.@+++..O+++O.@OOO..@OOO@.@OOO@.@OOO@.@OOO@.@OOO@.@OOO@.@+++@.@+++@.@+++@.@+++@.@+++@.@OOO@....",
".O...O.O...O.O...+.O...O.O...+.O...+.O...+.O...O.+...O.+...O.O...O.O...+.OO.OO.O...O.O...O.O...O.O...O.O...O.O...+.+.O.+.O...O.O...O.O...O.O...O.O...O.+...O....",
".O...O.O...O.O...+.O...O.O...+.O...+.O...+.O...O.+...O.+...O.O..O+.O...+.O.O.O.O...O.O...O.O...O.O...O.O...O.O...+.+.O.+.O...O.O...O.O...O.+O.O+.O...O.+..O+....",
".@OOO@.@OOO..@+++..@+++@.@OOO..@OOO..@+OO@.@OOO@..+++@..+++@.@OO+..@+++..@+++@.@+++@.@+++@.@OOO@.@O++@.@OOO..@OOO@..+@+..@+++@.@+++@.@+++@..+O+..@OOO@..+O+.....",
".O...O.O...O.O...+.O...O.O...+.O...+.O...O.O...O.+...O.+...O.O..O+.O...+.O...O.O...O.O...O.O...+.O.O.O.O...O.+...O.+.O.+.O...O.O...O.O.O.O.+O.O+.+...O.+O..+....",
".O...O.O...O.O...+.O...O.O...+.O...+.O...O.O...O.+...O.+...O.O...O.O...+.O...O.O...O.O...O.O...+.O..OO.O...O.+...O.+.O.+.O...O.O...O.OO.OO.O...O.+...O.O...+....",
".@+++@.@OOO..@OOO@.OOOO..@OOO@.O+++..@OOO@.@+++@..+++O.@OOO@.@+++@.@OOO+.@+++@.O+++O.@OOO@.@+++..@OOO@.@+++@.@OOO@..+@+..+OOOO..OOO..O+++O.@+++O@@OOO@.@OOO@....",
"................................................................................................................................................................",
"                                                                                                                                                                ",
"    XXXXXXXXXXXXXXXXXXXXXXXXXXXXXXXXXXXXXXXXXXXXXXXXXXXXXXX                                                                                                     ",
"    XXXXXXXXXXXXXXXXXXXXXXXXXXXXXXXXXXXXXXXXXXXXXXXXXXXXXXX                                                                                                     ",
"    XXXXXXXXXXXXXXXXXXXXXXXXXXXXXXXXXXXXXXXXXXXXXXXXXXXXXXX                                                                                                     ",
"    XXXXXXXXXXXXXXXXXXXXXXXXXXXXXXXXXXXXXXXXXXXXXXXXXXXXXXX                                                                                                     ",
"    XXXXXXXXXXXXXXXXXXXXXXXXXXXXXXXXXXXXXXXXXXXXXXXXXXXXXXX                                                                                                     ",
"    XXXXXXXXXXXXXXXXXXXXXXXXXXXXXXXXXXXXXXXXXXXXXXXXXXXXXXX                                                                                                     ",
"    XXXXXXXXXXXXXXXXXXXXXXXXXXXXXXXXXXXXXXXXXXXXXXXXXXXXXXX                                                                                                     ",
"    XXXXXXXXXXXXXXXXXXXXXXXXXXXXXXXXXXXXXXXXXXXXXXXXXXXXXXX                                                                                                     ",
"    XXXXXXXXXXXXXXXXXXXXXXXXXXXXXXXXXXXXXXXXXXXXXXXXXXXXXXX                                                                                                     ",
"    XXXXXXXXXXXXXXXXXXXXXXXXXXXXXXXXXXXXXXXXXXXXXXXXXXXXXXX                                                                                                     ",
"                                                                                                                                                                ",
"                                                                                                                                                                ",
"                                                                                                                                                                ",
"                                                                                                                                                                ",
"                                                                                                                                                                ",
"                                                                                                                                                                "};
